{
    "/js/app.js": "/js/app.js",
    "/css/app.css": "/css/app.css",
    "/js/user-profile-app.js": "/js/user-profile-app.js",
    "/js/contact-app.js": "/js/contact-app.js",
    "/js/transaction-app.js": "/js/transaction-app.js",
    "/js/registration-app.js": "/js/registration-app.js",
    "/js/user-app.js": "/js/user-app.js",
    "/js/client-app.js": "/js/client-app.js"
}